Tên tài khoản lxn (ID:11475) ipV4 192.168.1.4 at 04/18/2023 8:54 PM
(THOÁT) Tên tài khoản lxn (ID:11475) at 04/18/2023 8:55 PM
Tên tài khoản lxn (ID:11475) ipV4 192.168.1.4 at 04/18/2023 8:56 PM
Tên tài khoản lxn2 (ID:11474) ipV4 192.168.1.4 at 04/18/2023 9:03 PM
(THOÁT) Tên tài khoản lxn2 (ID:11474) at 04/18/2023 9:05 PM
Tên tài khoản lxn2 (ID:11474) ipV4 192.168.1.4 at 04/18/2023 9:06 PM
(THOÁT) Tên tài khoản lxn2 (ID:11474) at 04/18/2023 9:07 PM
Tên tài khoản lxn3 (ID:5006) ipV4 192.168.1.4 at 04/18/2023 9:07 PM
(THOÁT) Tên tài khoản lxn3 (ID:5006) at 04/18/2023 9:08 PM
Tên tài khoản lxn4 (ID:5007) ipV4 192.168.1.4 at 04/18/2023 9:08 PM
(THOÁT) Tên tài khoản lxn4 (ID:5007) at 04/18/2023 9:08 PM
Tên tài khoản lxn1 (ID:5005) ipV4 192.168.1.4 at 04/18/2023 9:08 PM
(THOÁT) Tên tài khoản lxn1 (ID:5005) at 04/18/2023 9:09 PM
(THOÁT) Tên tài khoản lxn (ID:11475) at 04/18/2023 9:10 PM
Tên tài khoản lxn1 (ID:5005) ipV4 192.168.1.4 at 04/18/2023 9:13 PM
(THOÁT) Tên tài khoản lxn1 (ID:5005) at 04/18/2023 9:13 PM
Tên tài khoản lxn (ID:11475) ipV4 192.168.1.4 at 04/18/2023 9:13 PM
(THOÁT) Tên tài khoản lxn (ID:11475) at 04/18/2023 9:14 PM
