BAG:songoku remove 1xĐậu thần cấp 10 lydo: Ăn đậu at 04/16/2023 12:43 PM
BAG:songoku remove 1xĐậu thần cấp 10 lydo: Ăn đậu at 04/16/2023 12:44 PM
BAG:songoku remove 1xĐậu thần cấp 10 lydo: Ăn đậu at 04/16/2023 12:44 PM
BAG:songoku remove 1xĐậu thần cấp 10 lydo: Ăn đậu at 04/16/2023 12:45 PM
BAG:songoku remove 1xĐậu thần cấp 10 lydo: Ăn đậu at 04/16/2023 12:46 PM
BAG:songoku remove 1xĐậu thần cấp 10 lydo: Ăn đậu at 04/16/2023 12:47 PM
BAG:songoku remove 1xĐậu thần cấp 10 lydo: Ăn đậu at 04/16/2023 12:48 PM
BAG:songoku remove 1xĐậu thần cấp 10 lydo: Ăn đậu at 04/16/2023 12:49 PM
BAG:songoku remove 1xĐậu thần cấp 10 lydo: Ăn đậu at 04/16/2023 12:50 PM
BAG:songoku remove 1xĐậu thần cấp 10 lydo: Ăn đậu at 04/16/2023 12:51 PM
BAG:songoku remove 1xĐậu thần cấp 10 lydo: Ăn đậu at 04/16/2023 12:52 PM
BAG:songoku remove 1xĐậu thần cấp 10 lydo: Ăn đậu at 04/16/2023 12:54 PM
BAG:songoku remove Đá Saphia lydo: Tự Xóa vật phẩm at 04/16/2023 12:55 PM
BAG:songoku remove Đá thạch anh tím lydo: Tự Xóa vật phẩm at 04/16/2023 12:55 PM
BAG:songoku remove Pháo hoa lydo: Tự Xóa vật phẩm at 04/16/2023 12:55 PM
BAG:songoku remove 1xĐậu thần cấp 10 lydo: Ăn đậu at 04/16/2023 12:55 PM
BAG:songoku remove 1xĐậu thần cấp 10 lydo: Ăn đậu at 04/16/2023 12:56 PM
BAG:songoku remove Đá Saphia lydo: Tự Xóa vật phẩm at 04/16/2023 12:58 PM
BAG:songoku remove Pháo hoa lydo: Tự Xóa vật phẩm at 04/16/2023 12:58 PM
BAG:songoku remove Đá lục bảo lydo: Tự Xóa vật phẩm at 04/16/2023 12:58 PM
BAG:songoku remove Đá thạch anh tím lydo: Tự Xóa vật phẩm at 04/16/2023 12:58 PM
BAG:songoku remove 1xĐậu thần cấp 10 lydo: Ăn đậu at 04/16/2023 12:58 PM
BAG:songoku remove 1xĐậu thần cấp 10 lydo: Ăn đậu at 04/16/2023 12:59 PM
BAG:songoku remove Đá lục bảo lydo: Tự Xóa vật phẩm at 04/16/2023 1:00 PM
BAG:songoku remove Đá Saphia lydo: Tự Xóa vật phẩm at 04/16/2023 1:00 PM
BAG:songoku remove Pháo hoa lydo: Tự Xóa vật phẩm at 04/16/2023 1:00 PM
BAG:songoku remove 1xĐậu thần cấp 10 lydo: Ăn đậu at 04/16/2023 1:01 PM
BAG:songoku remove 1xĐậu thần cấp 10 lydo: Ăn đậu at 04/16/2023 1:02 PM
BAG:songoku remove 1xĐậu thần cấp 10 lydo: Ăn đậu at 04/16/2023 1:04 PM
BAG:songoku remove Đá thạch anh tím lydo: Tự Xóa vật phẩm at 04/16/2023 1:04 PM
BAG:songoku remove Pháo hoa lydo: Tự Xóa vật phẩm at 04/16/2023 1:05 PM
BAG:songoku remove Đá Ruby lydo: Tự Xóa vật phẩm at 04/16/2023 1:05 PM
BAG:songoku remove Đá Saphia lydo: Tự Xóa vật phẩm at 04/16/2023 1:05 PM
BAG:songoku remove Áo vải thô lydo: Cất vào rương at 04/16/2023 1:06 PM
BAG:songoku remove Giầy vải thô lydo: Cất vào rương at 04/16/2023 1:07 PM
BAG:songoku remove 1xĐậu thần cấp 10 lydo: Ăn đậu at 04/16/2023 1:08 PM
BAG:songoku remove Găng vàng lydo: Mặc cho đệ tử at 04/16/2023 1:08 PM
BAG:songoku remove 1xĐậu thần cấp 10 lydo: Ăn đậu at 04/16/2023 1:10 PM
BAG:songoku remove Đá Saphia lydo: Tự Xóa vật phẩm at 04/16/2023 1:10 PM
BAG:songoku remove Pháo hoa lydo: Tự Xóa vật phẩm at 04/16/2023 1:10 PM
BAG:songoku remove 1xĐậu thần cấp 10 lydo: Ăn đậu at 04/16/2023 7:15 PM
BAG:songoku remove 1xĐậu thần cấp 10 lydo: Ăn đậu at 04/16/2023 7:19 PM
BAG:songoku remove Đá Ruby lydo: Tự Xóa vật phẩm at 04/16/2023 7:19 PM
BAG:songoku remove 1xĐậu thần cấp 10 lydo: Ăn đậu at 04/16/2023 7:25 PM
BAG:songoku remove 1xĐậu thần cấp 10 lydo: Ăn đậu at 04/16/2023 7:28 PM
BAG:songoku remove 1xĐậu thần cấp 10 lydo: Ăn đậu at 04/16/2023 7:32 PM
BAG:songoku remove Áo vải thô lydo: Mặc vào người at 04/16/2023 7:33 PM
BAG:songoku remove Găng da Xayda lydo: Mặc vào người at 04/16/2023 7:33 PM
BAG:songoku remove 1xĐậu thần cấp 10 lydo: Ăn đậu at 04/16/2023 7:35 PM
BAG:songoku remove 1xĐậu thần cấp 10 lydo: Ăn đậu at 04/16/2023 7:39 PM
BAG:songoku remove 1xĐậu thần cấp 10 lydo: Ăn đậu at 04/16/2023 7:42 PM
BAG:songoku remove 1xĐậu thần cấp 10 lydo: Ăn đậu at 04/16/2023 7:46 PM
BAG:songoku remove 1xĐậu thần cấp 10 lydo: Ăn đậu at 04/16/2023 7:50 PM
BAG:songoku remove 1xĐậu thần cấp 10 lydo: Ăn đậu at 04/16/2023 7:54 PM
BAG:songoku remove 1xĐậu thần cấp 10 lydo: Ăn đậu at 04/16/2023 7:59 PM
BAG:songoku remove 1xĐậu thần cấp 10 lydo: Ăn đậu at 04/16/2023 8:03 PM
BAG:songoku remove Găng vàng lydo: Tự Xóa vật phẩm at 04/16/2023 8:06 PM
BAG:songoku remove Đá Saphia lydo: Tự Xóa vật phẩm at 04/16/2023 8:06 PM
BAG:songoku remove Đá Titan lydo: Tự Xóa vật phẩm at 04/16/2023 8:06 PM
BAG:songoku remove Đá lục bảo lydo: Tự Xóa vật phẩm at 04/16/2023 8:06 PM
BAG:songoku remove Đá thạch anh tím lydo: Tự Xóa vật phẩm at 04/16/2023 8:06 PM
BAG:songoku remove Đá Ruby lydo: Tự Xóa vật phẩm at 04/16/2023 8:06 PM
BAG:songoku remove 1xĐậu thần cấp 10 lydo: Ăn đậu at 04/16/2023 8:08 PM
BAG:songoku remove Bom hi sinh lv1 lydo: Sách kĩ năng at 04/16/2023 8:11 PM
BAG:songoku remove Bom hi sinh lv2 lydo: Sách kĩ năng at 04/16/2023 8:11 PM
BAG:songoku remove Bom hi sinh lv3 lydo: Sách kĩ năng at 04/16/2023 8:11 PM
BAG:songoku remove Bom hi sinh lv4 lydo: Sách kĩ năng at 04/16/2023 8:11 PM
BAG:songoku remove Bom hi sinh lv5 lydo: Sách kĩ năng at 04/16/2023 8:11 PM
BAG:songoku remove Bom hi sinh lv6 lydo: Sách kĩ năng at 04/16/2023 8:11 PM
BAG:songoku remove Bom hi sinh lv7 lydo: Sách kĩ năng at 04/16/2023 8:11 PM
BAG:songoku remove 1xĐậu thần cấp 10 lydo: Ăn đậu at 04/16/2023 8:15 PM
BAG:songoku remove 1xĐậu thần cấp 10 lydo: Ăn đậu at 04/16/2023 8:22 PM
BAG:songoku remove Hóa khỉ khổng lồ lv1 lydo: Tự Xóa vật phẩm at 04/16/2023 8:26 PM
BAG:songoku remove Hóa khỉ khổng lồ lv2 lydo: Tự Xóa vật phẩm at 04/16/2023 8:26 PM
BAG:songoku remove Hóa khỉ khổng lồ lv3 lydo: Tự Xóa vật phẩm at 04/16/2023 8:26 PM
BAG:songoku remove Hóa khỉ khổng lồ lv4 lydo: Tự Xóa vật phẩm at 04/16/2023 8:27 PM
BAG:songoku remove Hóa khỉ khổng lồ lv5 lydo: Tự Xóa vật phẩm at 04/16/2023 8:27 PM
BAG:songoku remove Hóa khỉ khổng lồ lv6 lydo: Tự Xóa vật phẩm at 04/16/2023 8:27 PM
BAG:songoku remove Hóa khỉ khổng lồ lv7 lydo: Tự Xóa vật phẩm at 04/16/2023 8:27 PM
BAG:songoku remove 1xĐậu thần cấp 10 lydo: Ăn đậu at 04/16/2023 8:31 PM
BAG:songoku remove 1xĐậu thần cấp 10 lydo: Ăn đậu at 04/16/2023 8:38 PM
BAG:songoku remove Cải trang lydo: Mặc cho đệ tử at 04/16/2023 8:56 PM
BAG:songoku remove Đá Titan lydo: Tự Xóa vật phẩm at 04/16/2023 8:56 PM
BAG:songoku remove Đá Saphia lydo: Tự Xóa vật phẩm at 04/16/2023 8:56 PM
BAG:songoku remove Đá Ruby lydo: Tự Xóa vật phẩm at 04/16/2023 8:56 PM
BAG:songoku remove Đá thạch anh tím lydo: Tự Xóa vật phẩm at 04/16/2023 8:56 PM
BAG:songoku remove Đá lục bảo lydo: Tự Xóa vật phẩm at 04/16/2023 8:56 PM
BAG:songoku remove Tanjiro lydo: Tự Xóa vật phẩm at 04/16/2023 8:56 PM
BAG:songoku remove 1xĐậu thần cấp 10 lydo: Ăn đậu at 04/16/2023 8:58 PM
BAG:songoku remove Giáp tập luyện cấp 3 lydo: Mặc vào người at 04/16/2023 9:01 PM
BAG:songoku remove Giáp tập luyện cấp 3 lydo: Mặc cho đệ tử at 04/16/2023 9:01 PM
