Tên tài khoản lxn (ID:11475) ipV4 192.168.1.3 at 05/09/2023 10:48 AM
(THOÁT) Tên tài khoản lxn (ID:11475) at 05/09/2023 10:48 AM
Tên tài khoản lxn (ID:11475) ipV4 192.168.1.3 at 05/09/2023 10:50 AM
(THOÁT) Tên tài khoản lxn (ID:11475) at 05/09/2023 11:21 AM
