Tên tài khoản lxn (ID:11475) ipV4 192.168.1.4 at 04/20/2023 9:20 PM
(THOÁT) Tên tài khoản lxn (ID:11475) at 04/20/2023 9:29 PM
Tên tài khoản lxn (ID:11475) ipV4 192.168.1.4 at 04/20/2023 9:30 PM
(THOÁT) Tên tài khoản lxn (ID:11475) at 04/20/2023 9:31 PM
Tên tài khoản lxn (ID:11475) ipV4 192.168.1.4 at 04/20/2023 9:31 PM
(THOÁT) Tên tài khoản lxn (ID:11475) at 04/20/2023 9:31 PM
Tên tài khoản lxn (ID:11475) ipV4 192.168.1.4 at 04/20/2023 9:32 PM
(THOÁT) Tên tài khoản lxn (ID:11475) at 04/20/2023 9:36 PM
Tên tài khoản lxn (ID:11475) ipV4 192.168.1.4 at 04/20/2023 9:38 PM
(THOÁT) Tên tài khoản lxn (ID:11475) at 04/20/2023 9:38 PM
Tên tài khoản lxn (ID:11475) ipV4 192.168.1.4 at 04/20/2023 9:40 PM
(THOÁT) Tên tài khoản lxn (ID:11475) at 04/20/2023 9:41 PM
Tên tài khoản test (ID:5001) ipV4 192.168.1.4 at 04/20/2023 9:45 PM
(THOÁT) Tên tài khoản test (ID:5001) at 04/20/2023 9:46 PM
Tên tài khoản lxn (ID:11475) ipV4 192.168.1.4 at 04/20/2023 9:47 PM
Tên tài khoản test (ID:5001) ipV4 192.168.1.4 at 04/20/2023 10:10 PM
(THOÁT) Tên tài khoản test (ID:5001) at 04/20/2023 10:10 PM
(THOÁT) Tên tài khoản lxn (ID:11475) at 04/20/2023 10:19 PM
Tên tài khoản lxn (ID:11475) ipV4 192.168.1.4 at 04/20/2023 10:21 PM
(THOÁT) Tên tài khoản lxn (ID:11475) at 04/20/2023 10:21 PM
Tên tài khoản lxn (ID:11475) ipV4 192.168.1.4 at 04/20/2023 10:24 PM
(THOÁT) Tên tài khoản lxn (ID:11475) at 04/20/2023 10:26 PM
Tên tài khoản lxn (ID:11475) ipV4 192.168.1.4 at 04/20/2023 10:27 PM
(THOÁT) Tên tài khoản lxn (ID:11475) at 04/20/2023 10:27 PM
Tên tài khoản lxn (ID:11475) ipV4 192.168.1.4 at 04/20/2023 10:29 PM
(THOÁT) Tên tài khoản lxn (ID:11475) at 04/20/2023 10:59 PM
