BAG:vegeta add 1xQuả cầu Kênh Khi lv1 lydo: Mua từ cửa hàng at 04/21/2023 9:43 PM
BAG:vegeta add 1xQuả cầu Kênh Khi lv2 lydo: Mua từ cửa hàng at 04/21/2023 9:43 PM
BAG:vegeta add 1xQuả cầu Kênh Khi lv3 lydo: Mua từ cửa hàng at 04/21/2023 9:43 PM
BAG:vegeta add 1xQuả cầu Kênh Khi lv4 lydo: Mua từ cửa hàng at 04/21/2023 9:43 PM
BAG:vegeta add 1xQuả cầu Kênh Khi lv5 lydo: Mua từ cửa hàng at 04/21/2023 9:43 PM
BAG:vegeta add 1xQuả cầu Kênh Khi lv6 lydo: Mua từ cửa hàng at 04/21/2023 9:43 PM
BAG:vegeta add 1xQuả cầu Kênh Khi lv7 lydo: Mua từ cửa hàng at 04/21/2023 9:43 PM
BAG:vegeta add 1xKhiên năng lượng lv1 lydo: Mua từ cửa hàng at 04/21/2023 9:43 PM
BAG:vegeta add 1xKhiên năng lượng lv2 lydo: Mua từ cửa hàng at 04/21/2023 9:43 PM
BAG:vegeta add 1xKhiên năng lượng lv3 lydo: Mua từ cửa hàng at 04/21/2023 9:43 PM
BAG:vegeta add 1xKhiên năng lượng lv4 lydo: Mua từ cửa hàng at 04/21/2023 9:43 PM
BAG:vegeta add 1xKhiên năng lượng lv5 lydo: Mua từ cửa hàng at 04/21/2023 9:43 PM
BAG:vegeta add 1xKhiên năng lượng lv6 lydo: Mua từ cửa hàng at 04/21/2023 9:43 PM
BAG:vegeta add 1xKhiên năng lượng lv7 lydo: Mua từ cửa hàng at 04/21/2023 9:43 PM
BAG:vegeta add 10xPháo hoa (old: 5) lydo: Nhặt từ map at 04/21/2023 9:49 PM
BAG:vegeta add 12xNgọc Rồng 3 sao (old: 11) lydo: Nhặt từ map at 04/21/2023 9:51 PM
BAG:vegeta add 13xNgọc Rồng 3 sao (old: 12) lydo: Nhặt từ map at 04/21/2023 9:52 PM
BAG:vegeta add 14xNgọc Rồng 3 sao (old: 13) lydo: Nhặt từ map at 04/21/2023 9:54 PM
