BAG:songoku add 1xCải trang Black Goku SSJ White lydo: Lấy từ body vào hành trang at 04/18/2023 8:54 PM
BAG:songoku add 70xNgọc Rồng 6 sao (old: 69) lydo: Nhặt từ map at 04/18/2023 8:57 PM
BAG:songoku add 5xĐá lục bảo (old: 4) lydo: Nhặt từ map at 04/18/2023 9:00 PM
BAG:songoku add 8xĐá Ruby (old: 7) lydo: Nhặt từ map at 04/18/2023 9:00 PM
BAG:songoku add 6xĐá lục bảo (old: 5) lydo: Nhặt từ map at 04/18/2023 9:01 PM
BAG:songoku add 6xĐá Titan (old: 5) lydo: Nhặt từ map at 04/18/2023 9:03 PM
BAG:songoku add 7xĐá lục bảo (old: 6) lydo: Nhặt từ map at 04/18/2023 9:04 PM
BAG:songoku add 3xĐá Saphia (old: 2) lydo: Nhặt từ map at 04/18/2023 9:05 PM
BAG:songoku add 8xĐá lục bảo (old: 7) lydo: Nhặt từ map at 04/18/2023 9:06 PM
BAG:songoku add 7xĐá Titan (old: 6) lydo: Nhặt từ map at 04/18/2023 9:07 PM
BAG:songoku add 9xĐá lục bảo (old: 8) lydo: Nhặt từ map at 04/18/2023 9:07 PM
BAG:songoku add 10xĐá lục bảo (old: 9) lydo: Nhặt từ map at 04/18/2023 9:08 PM
BAG:songoku add 9xĐá Ruby (old: 8) lydo: Nhặt từ map at 04/18/2023 9:08 PM
BAG:songoku add 11xĐá thạch anh tím (old: 10) lydo: Nhặt từ map at 04/18/2023 9:09 PM
BAG:songoku add 4xĐá Saphia (old: 3) lydo: Nhặt từ map at 04/18/2023 9:10 PM
BAG:songoku add 8xĐá Titan (old: 7) lydo: Nhặt từ map at 04/18/2023 9:14 PM
BAG:songoku add 10xĐá Ruby (old: 9) lydo: Nhặt từ map at 04/18/2023 9:14 PM
BAG:songoku add 5xĐá Saphia (old: 4) lydo: Nhặt từ map at 04/18/2023 9:14 PM
